dax_hmem.ko
dax_pmem_compat.ko
dax_pmem_core.ko
dax_pmem.ko
device_dax.ko
drm_buddy.ko
hid-hyperv.ko
hv_balloon.ko
hv_netvsc.ko
hv_sock.ko
hv_storvsc.ko
hv_utils.ko
hv_vmbus.ko
hyperv_fb.ko
hyperv-keyboard.ko
i915.ko
intel-gtt.ko
kvmgt.ko
mana.ko
oprofile.ko
pci-hyperv-intf.ko
pci-hyperv.ko
snd-hdmi-lpe-audio.ko
snd_xen_front.ko
tmem.ko
uio_hv_generic.ko
xen-blkfront.ko
xen-evtchn.ko
xen-front-pgdir-shbuf.ko
xenfs.ko
xen-kbdfront.ko
xen-netfront.ko
xen-privcmd.ko
xen_wdt.ko
