{
    "dynamic_wep_tls": {
        "ssid": "qe-wep-enterprise",
        "key_management": "ieee8021x",
        "eap": "tls",
        "identity": "Bill Smith",
        "private_key_password": "12345testing",
        "ca_cert_url": "http://tools.lab.eng.brq2.redhat.com:8080/ca.pem",
        "client_cert_url": "http://tools.lab.eng.brq2.redhat.com:8080/client.pem",
        "private_key_url": "http://tools.lab.eng.brq2.redhat.com:8080/client.pem"
    },
    "dynamic_wep_ttls": {
        "ssid": "qe-wep-enterprise",
        "key_management": "ieee8021x",
        "eap": "ttls",
        "identity": "Bill Smith",
        "password": "testing123",
        "phase2_autheap": "mschapv2",
        "ca_cert_url": "http://tools.lab.eng.brq2.redhat.com:8080/ca.pem"
    },
    "hidden_wpa2_passphrase": {
        "ssid": "qe-hidden-wpa2-psk",
        "key_management": "wpa-psk",
        "psk": "6ubDLTiFr6jDSAxW08GdKU0s5Prh1c5G8CWeYpXHgXeYmhhMyDX8vMMWwLhx8Sl",
        "hidden": true
    },
    "unencrypted": {
        "ssid": "qe-open"
    },
    "wep_key": {
        "ssid": "qe-wep",
        "key_management": "none",
        "wep_key0": "74657374696E67313233343536"
    },
    "wpa1_passphrase": {
        "ssid": "qe-wpa1-psk",
        "key_management": "wpa-psk",
        "psk": "over the river and through the woods"
    },
    "wpa1_peap": {
        "ssid": "qe-wpa1-enterprise",
        "key_management": "wpa-eap",
        "eap": "peap",
        "identity": "Bill Smith",
        "password": "testing123",
        "phase2_autheap": "mschapv2",
        "ca_cert_url": "http://tools.lab.eng.brq2.redhat.com:8080/ca.pem"
    },
    "wpa1_tls": {
        "ssid": "qe-wpa1-enterprise",
        "key_management": "wpa-eap",
        "eap": "tls",
        "identity": "Bill Smith",
        "private_key_password": "12345testing",
        "ca_cert_url": "http://tools.lab.eng.brq2.redhat.com:8080/ca.pem",
        "client_cert_url": "http://tools.lab.eng.brq2.redhat.com:8080/client.pem",
        "private_key_url": "http://tools.lab.eng.brq2.redhat.com:8080/client.pem"
    },
    "wpa1_ttls": {
        "ssid": "qe-wpa1-enterprise",
        "key_management": "wpa-eap",
        "eap": "ttls",
        "identity": "Bill Smith",
        "password": "testing123",
        "phase2_autheap": "mschapv2",
        "ca_cert_url": "http://tools.lab.eng.brq2.redhat.com:8080/ca.pem"
    },
    "wpa2_passphrase": {
        "ssid": "qe-wpa2-psk",
        "key_management": "wpa-psk",
        "psk": "over the river and through the woods"
    },
    "wpa2_peap": {
        "ssid": "qe-wpa2-enterprise",
        "key_management": "wpa-eap",
        "eap": "peap",
        "identity": "Bill Smith",
        "password": "testing123",
        "phase2_autheap": "mschapv2",
        "ca_cert_url": "http://tools.lab.eng.brq2.redhat.com:8080/ca.pem"
    },
    "wpa2_tls": {
        "ssid": "qe-wpa2-enterprise",
        "key_management": "wpa-eap",
        "eap": "tls",
        "identity": "Bill Smith",
        "private_key_password": "12345testing",
        "ca_cert_url": "http://tools.lab.eng.brq2.redhat.com:8080/ca.pem",
        "client_cert_url": "http://tools.lab.eng.brq2.redhat.com:8080/client.pem",
        "private_key_url": "http://tools.lab.eng.brq2.redhat.com:8080/client.pem"
    },
    "wpa2_ttls": {
        "ssid": "qe-wpa2-enterprise",
        "key_management": "wpa-eap",
        "eap": "ttls",
        "identity": "Bill Smith",
        "password": "testing123",
        "phase2_autheap": "mschapv2",
        "ca_cert_url": "http://tools.lab.eng.brq2.redhat.com:8080/ca.pem"
    },
    "wep_leap": {
        "ssid": "qe-wep-enterprise-cisco",
        "key_management": "ieee8021x",
        "eap": "leap",
        "auth_alg": "leap",
        "identity": "Bill Smith",
        "password": "testing123"
    }
}
